<svg xmlns="http://www.w3.org/2000/svg" width="31" height="24" viewBox="0 0 31 24">
  <path id="shopping-basket-solid" d="M31,41.854v.857A1.289,1.289,0,0,1,29.708,44h-.431l-1.405,9.792A2.58,2.58,0,0,1,25.315,56H5.685a2.58,2.58,0,0,1-2.557-2.208L1.722,44H1.292A1.289,1.289,0,0,1,0,42.712v-.857a1.289,1.289,0,0,1,1.292-1.286H4.916L10.663,32.7a1.727,1.727,0,0,1,2.406-.378,1.709,1.709,0,0,1,.38,2.395L9.175,40.569h12.65L17.552,34.72a1.709,1.709,0,0,1,.38-2.395,1.727,1.727,0,0,1,2.406.378l5.747,7.865h3.624A1.289,1.289,0,0,1,31,41.854ZM16.792,51.283v-6a1.292,1.292,0,0,0-2.583,0v6a1.292,1.292,0,0,0,2.583,0Zm6.028,0v-6a1.292,1.292,0,0,0-2.583,0v6a1.292,1.292,0,0,0,2.583,0Zm-12.056,0v-6a1.292,1.292,0,0,0-2.583,0v6a1.292,1.292,0,0,0,2.583,0Z" transform="translate(0 -31.997)" fill="#1c004a"/>
</svg>
